C:\softdev\lab3-test\src\main\java\com\mycompany\lab3\test\OXProgram.java
C:\softdev\lab3-test\src\main\java\com\mycompany\lab3\test\Lab3Test.java
C:\softdev\lab3-test\src\main\java\com\mycompany\lab3\test\Calculation.java
